plotly
…
data("rest_inspec")

rest_inspec = 
  rest_inspec %>% 
  select(boro, building,cuisine_description,score,violation_code,grade) %>% 
  drop_na() %>% 
  filter(boro == "MANHATTAN",
         !grade == "Not Yet Graded",
         cuisine_description %in% c("Chinese","Japanese","Korean")) %>%
  mutate(grade = factor(grade),
         violation_code = factor(violation_code))

rest_inspec

## # A tibble: 9,299 × 6
##    boro      building cuisine_description score violation_code grade
##    <chr>     <chr>    <chr>               <int> <fct>          <fct>
##  1 MANHATTAN 37       Korean                  9 10F            A    
##  2 MANHATTAN 53       Korean                  6 10F            A    
##  3 MANHATTAN 35       Korean                 14 04L            B    
##  4 MANHATTAN 5        Korean                  7 06C            A    
##  5 MANHATTAN 1250     Korean                 12 10B            A    
##  6 MANHATTAN 35       Korean                 14 10F            B    
##  7 MANHATTAN 32       Korean                 12 02G            A    
##  8 MANHATTAN 53       Korean                  6 10B            A    
##  9 MANHATTAN 34       Korean                 10 06C            A    
## 10 MANHATTAN 9        Korean                 11 09C            A    
## # … with 9,289 more rows
…
